hidden function: LOGSIG
output function: LOGSIG
number of epizodes: 50
number of neurons: 100
weight init function: Náhodne od 0 do 1
alpha value: 0.05
Ep   1/50: CE = 83.84%, RE = 2.00000
Ep   2/50: CE = 83.84%, RE = 2.00000
Ep   3/50: CE = 83.84%, RE = 2.00000
Ep   4/50: CE = 83.84%, RE = 2.00000
Ep   5/50: CE = 83.84%, RE = 2.00000
Ep   6/50: CE = 83.84%, RE = 2.00000
Ep   7/50: CE = 83.84%, RE = 2.00000
Ep   8/50: CE = 83.84%, RE = 2.00000
Ep   9/50: CE = 83.84%, RE = 2.00000
Ep  10/50: CE = 83.84%, RE = 2.00000
Ep  11/50: CE = 83.84%, RE = 2.00000
Ep  12/50: CE = 83.84%, RE = 2.00000
Ep  13/50: CE = 83.84%, RE = 2.00000
Ep  14/50: CE = 83.84%, RE = 2.00000
Ep  15/50: CE = 83.84%, RE = 2.00000
Ep  16/50: CE = 83.84%, RE = 2.00000
Ep  17/50: CE = 83.84%, RE = 2.00000
Ep  18/50: CE = 83.84%, RE = 2.00000
Ep  19/50: CE = 83.84%, RE = 2.00000
Ep  20/50: CE = 83.84%, RE = 2.00000
Ep  21/50: CE = 83.84%, RE = 2.00000
Ep  22/50: CE = 83.84%, RE = 2.00000
Ep  23/50: CE = 83.84%, RE = 2.00000
Ep  24/50: CE = 83.83%, RE = 2.00000
Ep  25/50: CE = 83.83%, RE = 2.00000
Ep  26/50: CE = 83.83%, RE = 2.00000
Ep  27/50: CE = 83.83%, RE = 2.00000
Ep  28/50: CE = 83.83%, RE = 2.00000
Ep  29/50: CE = 83.83%, RE = 2.00000
Ep  30/50: CE = 83.83%, RE = 2.00000
Ep  31/50: CE = 83.83%, RE = 2.00000
Ep  32/50: CE = 83.83%, RE = 2.00000
Ep  33/50: CE = 83.83%, RE = 2.00000
Ep  34/50: CE = 83.83%, RE = 2.00000
Ep  35/50: CE = 83.83%, RE = 2.00000
Ep  36/50: CE = 83.83%, RE = 2.00000
Ep  37/50: CE = 83.83%, RE = 2.00000
Ep  38/50: CE = 83.83%, RE = 2.00000
Ep  39/50: CE = 83.83%, RE = 2.00000
Ep  40/50: CE = 83.83%, RE = 2.00000
Ep  41/50: CE = 83.83%, RE = 2.00000
Ep  42/50: CE = 83.83%, RE = 2.00000
Ep  43/50: CE = 83.83%, RE = 2.00000
Ep  44/50: CE = 83.83%, RE = 2.00000
Ep  45/50: CE = 83.83%, RE = 2.00000
Ep  46/50: CE = 83.83%, RE = 2.00000
Ep  47/50: CE = 83.83%, RE = 2.00000
Ep  48/50: CE = 83.83%, RE = 2.00000
Ep  49/50: CE = 83.83%, RE = 2.00000
Ep  50/50: CE = 83.83%, RE = 2.00000
Final testing error: CE = 83.06%, RE = 2.00000