hidden function: TANH
output function: LOGSIG
number of epizodes: 50
number of neurons: 100
weight init function: Gaussovská distribúcia od -1 do 1
alpha value: 0.05
Ep   1/50: CE = 40.91%, RE = 0.50365
Ep   2/50: CE = 32.78%, RE = 0.37148
Ep   3/50: CE = 32.17%, RE = 0.35921
Ep   4/50: CE = 32.27%, RE = 0.35498
Ep   5/50: CE = 32.06%, RE = 0.35213
Ep   6/50: CE = 22.70%, RE = 0.30324
Ep   7/50: CE =  4.19%, RE = 0.08424
Ep   8/50: CE =  3.64%, RE = 0.06900
Ep   9/50: CE =  3.33%, RE = 0.06283
Ep  10/50: CE =  3.17%, RE = 0.05954
Ep  11/50: CE =  3.00%, RE = 0.05568
Ep  12/50: CE =  2.75%, RE = 0.05416
Ep  13/50: CE =  3.00%, RE = 0.05320
Ep  14/50: CE =  2.73%, RE = 0.05218
Ep  15/50: CE =  2.97%, RE = 0.05019
Ep  16/50: CE =  2.59%, RE = 0.04703
Ep  17/50: CE =  2.75%, RE = 0.04806
Ep  18/50: CE =  2.66%, RE = 0.04578
Ep  19/50: CE =  2.58%, RE = 0.04549
Ep  20/50: CE =  2.72%, RE = 0.04446
Ep  21/50: CE =  2.23%, RE = 0.04183
Ep  22/50: CE =  2.31%, RE = 0.04210
Ep  23/50: CE =  2.61%, RE = 0.04233
Ep  24/50: CE =  2.17%, RE = 0.04012
Ep  25/50: CE =  2.19%, RE = 0.03960
Ep  26/50: CE =  2.19%, RE = 0.03985
Ep  27/50: CE =  2.06%, RE = 0.03924
Ep  28/50: CE =  2.12%, RE = 0.03774
Ep  29/50: CE =  2.12%, RE = 0.03834
Ep  30/50: CE =  2.16%, RE = 0.03758
Ep  31/50: CE =  2.02%, RE = 0.03633
Ep  32/50: CE =  2.16%, RE = 0.03686
Ep  33/50: CE =  2.22%, RE = 0.03560
Ep  34/50: CE =  2.20%, RE = 0.03559
Ep  35/50: CE =  2.02%, RE = 0.03490
Ep  36/50: CE =  2.08%, RE = 0.03493
Ep  37/50: CE =  2.00%, RE = 0.03437
Ep  38/50: CE =  1.83%, RE = 0.03382
Ep  39/50: CE =  1.95%, RE = 0.03335
Ep  40/50: CE =  1.69%, RE = 0.03202
Ep  41/50: CE =  1.91%, RE = 0.03351
Ep  42/50: CE =  1.75%, RE = 0.03266
Ep  43/50: CE =  1.84%, RE = 0.03161
Ep  44/50: CE =  1.95%, RE = 0.03255
Ep  45/50: CE =  1.92%, RE = 0.03137
Ep  46/50: CE =  1.66%, RE = 0.03028
Ep  47/50: CE =  1.86%, RE = 0.03122
Ep  48/50: CE =  1.98%, RE = 0.03195
Ep  49/50: CE =  1.83%, RE = 0.03073
Ep  50/50: CE =  1.91%, RE = 0.03113
Final testing error: CE =  2.19%, RE = 0.03139