hidden function: LOGSIG
output function: LOGSIG
number of epizodes: 50
number of neurons: 40
weight init function: Náhodne od 0 do 1
alpha value: 0.05
Ep   1/50: CE = 69.31%, RE = 1.99924
Ep   2/50: CE = 69.31%, RE = 1.89398
Ep   3/50: CE = 68.98%, RE = 1.25723
Ep   4/50: CE = 60.75%, RE = 1.25277
Ep   5/50: CE = 52.53%, RE = 1.24791
Ep   6/50: CE = 44.89%, RE = 0.76790
Ep   7/50: CE = 44.89%, RE = 0.70072
Ep   8/50: CE = 44.89%, RE = 0.67674
Ep   9/50: CE = 40.59%, RE = 0.58647
Ep  10/50: CE = 21.89%, RE = 0.34953
Ep  11/50: CE = 13.11%, RE = 0.25504
Ep  12/50: CE =  9.80%, RE = 0.20396
Ep  13/50: CE =  8.03%, RE = 0.17496
Ep  14/50: CE =  7.36%, RE = 0.15757
Ep  15/50: CE =  6.64%, RE = 0.14490
Ep  16/50: CE =  5.83%, RE = 0.13435
Ep  17/50: CE =  5.55%, RE = 0.12576
Ep  18/50: CE =  4.98%, RE = 0.11842
Ep  19/50: CE =  4.55%, RE = 0.11208
Ep  20/50: CE =  4.53%, RE = 0.10707
Ep  21/50: CE =  4.17%, RE = 0.10238
Ep  22/50: CE =  4.31%, RE = 0.09820
Ep  23/50: CE =  4.12%, RE = 0.09515
Ep  24/50: CE =  3.98%, RE = 0.09221
Ep  25/50: CE =  3.88%, RE = 0.08996
Ep  26/50: CE =  3.78%, RE = 0.08760
Ep  27/50: CE =  3.64%, RE = 0.08477
Ep  28/50: CE =  3.55%, RE = 0.08287
Ep  29/50: CE =  3.34%, RE = 0.08098
Ep  30/50: CE =  3.56%, RE = 0.07929
Ep  31/50: CE =  3.59%, RE = 0.07824
Ep  32/50: CE =  3.27%, RE = 0.07644
Ep  33/50: CE =  3.50%, RE = 0.07429
Ep  34/50: CE =  3.22%, RE = 0.07305
Ep  35/50: CE =  3.31%, RE = 0.07231
Ep  36/50: CE =  3.19%, RE = 0.07097
Ep  37/50: CE =  3.02%, RE = 0.06973
Ep  38/50: CE =  2.98%, RE = 0.06887
Ep  39/50: CE =  2.88%, RE = 0.06817
Ep  40/50: CE =  2.88%, RE = 0.06660
Ep  41/50: CE =  2.81%, RE = 0.06556
Ep  42/50: CE =  2.89%, RE = 0.06498
Ep  43/50: CE =  2.75%, RE = 0.06372
Ep  44/50: CE =  2.77%, RE = 0.06333
Ep  45/50: CE =  2.64%, RE = 0.06171
Ep  46/50: CE =  2.75%, RE = 0.06115
Ep  47/50: CE =  2.70%, RE = 0.06023
Ep  48/50: CE =  2.50%, RE = 0.05933
Ep  49/50: CE =  2.53%, RE = 0.05842
Ep  50/50: CE =  2.38%, RE = 0.05845
Final testing error: CE =  3.06%, RE = 0.06236