hidden function: LOGSIG
output function: LOGSIG
number of epizodes: 100
number of neurons: 40
weight init function: Gaussovská distribúcia od -1 do 1
alpha value: 0.05
Ep   1/100: CE = 28.58%, RE = 0.43480
Ep   2/100: CE = 13.28%, RE = 0.26075
Ep   3/100: CE = 10.03%, RE = 0.20677
Ep   4/100: CE =  8.58%, RE = 0.17745
Ep   5/100: CE =  7.31%, RE = 0.15748
Ep   6/100: CE =  6.36%, RE = 0.14304
Ep   7/100: CE =  5.77%, RE = 0.13130
Ep   8/100: CE =  5.39%, RE = 0.12353
Ep   9/100: CE =  4.92%, RE = 0.11579
Ep  10/100: CE =  4.59%, RE = 0.10887
Ep  11/100: CE =  4.36%, RE = 0.10372
Ep  12/100: CE =  4.00%, RE = 0.09905
Ep  13/100: CE =  3.97%, RE = 0.09499
Ep  14/100: CE =  3.58%, RE = 0.09198
Ep  15/100: CE =  3.67%, RE = 0.08963
Ep  16/100: CE =  3.52%, RE = 0.08580
Ep  17/100: CE =  3.39%, RE = 0.08370
Ep  18/100: CE =  3.20%, RE = 0.08127
Ep  19/100: CE =  3.16%, RE = 0.07975
Ep  20/100: CE =  3.12%, RE = 0.07762
Ep  21/100: CE =  3.05%, RE = 0.07562
Ep  22/100: CE =  3.05%, RE = 0.07396
Ep  23/100: CE =  3.00%, RE = 0.07205
Ep  24/100: CE =  2.86%, RE = 0.07080
Ep  25/100: CE =  2.61%, RE = 0.06970
Ep  26/100: CE =  2.75%, RE = 0.06830
Ep  27/100: CE =  2.41%, RE = 0.06639
Ep  28/100: CE =  2.58%, RE = 0.06539
Ep  29/100: CE =  2.52%, RE = 0.06436
Ep  30/100: CE =  2.52%, RE = 0.06343
Ep  31/100: CE =  2.53%, RE = 0.06283
Ep  32/100: CE =  2.36%, RE = 0.06165
Ep  33/100: CE =  2.53%, RE = 0.06031
Ep  34/100: CE =  2.36%, RE = 0.05946
Ep  35/100: CE =  2.38%, RE = 0.05899
Ep  36/100: CE =  2.20%, RE = 0.05816
Ep  37/100: CE =  2.34%, RE = 0.05721
Ep  38/100: CE =  2.27%, RE = 0.05683
Ep  39/100: CE =  2.17%, RE = 0.05629
Ep  40/100: CE =  1.83%, RE = 0.05517
Ep  41/100: CE =  2.23%, RE = 0.05440
Ep  42/100: CE =  2.19%, RE = 0.05389
Ep  43/100: CE =  2.09%, RE = 0.05316
Ep  44/100: CE =  1.98%, RE = 0.05283
Ep  45/100: CE =  1.91%, RE = 0.05165
Ep  46/100: CE =  2.03%, RE = 0.05131
Ep  47/100: CE =  1.98%, RE = 0.05048
Ep  48/100: CE =  1.75%, RE = 0.04984
Ep  49/100: CE =  1.95%, RE = 0.04930
Ep  50/100: CE =  2.02%, RE = 0.04931
Ep  51/100: CE =  1.95%, RE = 0.04827
Ep  52/100: CE =  1.92%, RE = 0.04844
Ep  53/100: CE =  1.86%, RE = 0.04780
Ep  54/100: CE =  1.84%, RE = 0.04731
Ep  55/100: CE =  1.77%, RE = 0.04635
Ep  56/100: CE =  1.73%, RE = 0.04588
Ep  57/100: CE =  1.80%, RE = 0.04582
Ep  58/100: CE =  1.72%, RE = 0.04514
Ep  59/100: CE =  1.64%, RE = 0.04461
Ep  60/100: CE =  1.73%, RE = 0.04495
Ep  61/100: CE =  1.55%, RE = 0.04451
Ep  62/100: CE =  1.81%, RE = 0.04380
Ep  63/100: CE =  1.61%, RE = 0.04331
Ep  64/100: CE =  1.64%, RE = 0.04305
Ep  65/100: CE =  1.58%, RE = 0.04287
Ep  66/100: CE =  1.61%, RE = 0.04256
Ep  67/100: CE =  1.39%, RE = 0.04111
Ep  68/100: CE =  1.64%, RE = 0.04210
Ep  69/100: CE =  1.61%, RE = 0.04134
Ep  70/100: CE =  1.67%, RE = 0.04155
Ep  71/100: CE =  1.61%, RE = 0.04100
Ep  72/100: CE =  1.53%, RE = 0.04022
Ep  73/100: CE =  1.44%, RE = 0.04014
Ep  74/100: CE =  1.59%, RE = 0.04002
Ep  75/100: CE =  1.47%, RE = 0.03975
Ep  76/100: CE =  1.48%, RE = 0.03911
Ep  77/100: CE =  1.56%, RE = 0.03945
Ep  78/100: CE =  1.48%, RE = 0.03882
Ep  79/100: CE =  1.66%, RE = 0.03900
Ep  80/100: CE =  1.39%, RE = 0.03839
Ep  81/100: CE =  1.38%, RE = 0.03814
Ep  82/100: CE =  1.42%, RE = 0.03785
Ep  83/100: CE =  1.44%, RE = 0.03758
Ep  84/100: CE =  1.34%, RE = 0.03767
Ep  85/100: CE =  1.34%, RE = 0.03677
Ep  86/100: CE =  1.52%, RE = 0.03717
Ep  87/100: CE =  1.50%, RE = 0.03701
Ep  88/100: CE =  1.50%, RE = 0.03660
Ep  89/100: CE =  1.45%, RE = 0.03659
Ep  90/100: CE =  1.27%, RE = 0.03647
Ep  91/100: CE =  1.42%, RE = 0.03631
Ep  92/100: CE =  1.36%, RE = 0.03606
Ep  93/100: CE =  1.33%, RE = 0.03557
Ep  94/100: CE =  1.53%, RE = 0.03574
Ep  95/100: CE =  1.42%, RE = 0.03518
Ep  96/100: CE =  1.23%, RE = 0.03537
Ep  97/100: CE =  1.23%, RE = 0.03512
Ep  98/100: CE =  1.25%, RE = 0.03504
Ep  99/100: CE =  1.22%, RE = 0.03469
Ep 100/100: CE =  1.44%, RE = 0.03454
Final testing error: CE =  1.50%, RE = 0.03639