\relax 
\providecommand\hyper@newdestlabel[2]{}
\catcode `^\active 
\catcode `"\active 
\catcode `'\active 
\catcode `-\active 
\providecommand\HyperFirstAtBeginDocument{\AtBeginDocument}
\HyperFirstAtBeginDocument{\ifx\hyper@anchor\@undefined
\global\let\oldcontentsline\contentsline
\gdef\contentsline#1#2#3#4{\oldcontentsline{#1}{#2}{#3}}
\global\let\oldnewlabel\newlabel
\gdef\newlabel#1#2{\newlabelxx{#1}#2}
\gdef\newlabelxx#1#2#3#4#5#6{\oldnewlabel{#1}{{#2}{#3}}}
\AtEndDocument{\ifx\hyper@anchor\@undefined
\let\contentsline\oldcontentsline
\let\newlabel\oldnewlabel
\fi}
\fi}
\global\let\hyper@last\relax 
\gdef\HyperFirstAtBeginDocument#1{#1}
\providecommand\HyField@AuxAddToFields[1]{}
\providecommand\HyField@AuxAddToCoFields[2]{}
\select@language{slovak}
\@writefile{toc}{\select@language{slovak}}
\@writefile{lof}{\select@language{slovak}}
\@writefile{lot}{\select@language{slovak}}
\@writefile{toc}{\contentsline {section}{\numberline {1}Pr\IeC {\'\i }prava datasetu}{1}{section.1}}
\@writefile{toc}{\contentsline {section}{\numberline {2}Opis architekt\IeC {\'u}ry siete}{1}{section.2}}
\@writefile{toc}{\contentsline {section}{\numberline {3}Pr\IeC {\'\i }prava tr\IeC {\'e}novacieho r\IeC {\'a}mca}{2}{section.3}}
\@writefile{lof}{\contentsline {figure}{\numberline {1}{\ignorespaces Logaritmick\IeC {\'a} sigmoida(Prevzat\IeC {\'e} z \url  {https://www.mathworks.com/help/nnet/ref/logsig.html})}}{2}{figure.1}}
\newlabel{fig:logsig}{{1}{2}{Logaritmická sigmoida(Prevzaté z \url {https://www.mathworks.com/help/nnet/ref/logsig.html})}{figure.1}{}}
\@writefile{lof}{\contentsline {figure}{\numberline {2}{\ignorespaces Hyperbolick\IeC {\'y} tangens (Prevzat\IeC {\'e} z \url  {http://mathworld.wolfram.com/HyperbolicTangent.html})}}{3}{figure.2}}
\newlabel{fig:tanh}{{2}{3}{Hyperbolický tangens (Prevzaté z \url {http://mathworld.wolfram.com/HyperbolicTangent.html})}{figure.2}{}}
\@writefile{toc}{\contentsline {section}{\numberline {4}V\IeC {\'y}sledky tr\IeC {\'e}novania r\IeC {\^o}znych konfigur\IeC {\'a}ci\IeC {\'\i }}{3}{section.4}}
\@writefile{lot}{\contentsline {table}{\numberline {1}{V\IeC {\'y}sledky r\IeC {\^o}znych konfigur\IeC {\'a}ci\IeC {\'\i } perceptr\IeC {\'o}nu}}{3}{table.1}}
\newlabel{vysledky}{{1}{3}{Výsledky rôznych konfigurácií perceptrónu}{table.1}{}}
\gdef \LT@i {\LT@entry 
    {1}{60.59866pt}\LT@entry 
    {1}{60.19867pt}\LT@entry 
    {1}{60.19867pt}\LT@entry 
    {1}{76.13562pt}\LT@entry 
    {1}{60.19867pt}\LT@entry 
    {1}{60.19867pt}\LT@entry 
    {1}{60.19867pt}\LT@entry 
    {1}{60.19867pt}}
\@writefile{lof}{\contentsline {figure}{\numberline {3}{\ignorespaces Priebeh u\IeC {\v c}enia najlep\IeC {\v s}ieho modelu z tabu\IeC {\v l}ky \ref  {vysledky}}}{11}{figure.3}}
\newlabel{fig:best}{{3}{11}{Priebeh učenia najlepšieho modelu z tabuľky \ref {vysledky}}{figure.3}{}}
\@writefile{lof}{\contentsline {figure}{\numberline {4}{\ignorespaces Priebeh u\IeC {\v c}enia najlep\IeC {\v s}ieho modelu s kombin\IeC {\'a}ciou LOGSIG a TANH aktiva\IeC {\v c}n\IeC {\'y}ch funkci\IeC {\'\i } z tabu\IeC {\v l}ky\ref  {vysledky}}}{11}{figure.4}}
\newlabel{fig:best}{{4}{11}{Priebeh učenia najlepšieho modelu s kombináciou LOGSIG a TANH aktivačných funkcií z tabuľky\ref {vysledky}}{figure.4}{}}
\@writefile{toc}{\contentsline {section}{\numberline {5}Z\IeC {\'a}vere\IeC {\v c}n\IeC {\'e} testovanie}{12}{section.5}}
\@writefile{toc}{\contentsline {subsection}{\numberline {5.1}Model LOGSIG LOGSIG}{12}{subsection.5.1}}
\@writefile{toc}{\contentsline {subsection}{\numberline {5.2}Model TANH LOGSIG}{12}{subsection.5.2}}
\@writefile{lof}{\contentsline {figure}{\numberline {5}{\ignorespaces Priebeh u\IeC {\v c}enia LOGSIGLOGSIG modelu}}{13}{figure.5}}
\newlabel{log_learn}{{5}{13}{Priebeh učenia LOGSIGLOGSIG modelu}{figure.5}{}}
\@writefile{lof}{\contentsline {figure}{\numberline {6}{\ignorespaces Confusion matrix LOGSIGLOGSIG modelu, kde 0 zodpoved\IeC {\'a} triede A, 1 triede B a 2 triede C}}{13}{figure.6}}
\newlabel{log_conf}{{6}{13}{Confusion matrix LOGSIGLOGSIG modelu, kde 0 zodpovedá triede A, 1 triede B a 2 triede C}{figure.6}{}}
\@writefile{lof}{\contentsline {figure}{\numberline {7}{\ignorespaces Vizualiz\IeC {\'a}cia predikcie LOGSIGLOGSIG modelu}}{14}{figure.7}}
\newlabel{log_viz}{{7}{14}{Vizualizácia predikcie LOGSIGLOGSIG modelu}{figure.7}{}}
\@writefile{lof}{\contentsline {figure}{\numberline {8}{\ignorespaces Priebeh u\IeC {\v c}enia TANH LOGSIG modelu}}{14}{figure.8}}
\newlabel{tanh_learn}{{8}{14}{Priebeh učenia TANH LOGSIG modelu}{figure.8}{}}
\@writefile{lof}{\contentsline {figure}{\numberline {9}{\ignorespaces Confusion matrix TANH LOGSIG modelu, kde 0 zodpoved\IeC {\'a} triede A, 1 triede B a 2 triede C}}{15}{figure.9}}
\newlabel{tanh_conf}{{9}{15}{Confusion matrix TANH LOGSIG modelu, kde 0 zodpovedá triede A, 1 triede B a 2 triede C}{figure.9}{}}
\@writefile{lof}{\contentsline {figure}{\numberline {10}{\ignorespaces Vizualiz\IeC {\'a}cia predikcie TANH LOGSIG modelu}}{15}{figure.10}}
\newlabel{tanh_viz}{{10}{15}{Vizualizácia predikcie TANH LOGSIG modelu}{figure.10}{}}
